{
  "sets": {
    "1000": {
      "questions":[
        {
          "id": "10011",
          "question": "Losowe 1",
          "questionType": "SIMPLE_QUESTION",
          "answers":{
            "a": "X1",
            "b": "Y1",
            "c": "Z1",
            "d": "W1"
          },
          "next": "",
          "condition":""
        },
        {
          "id": "10012",
          "question": "Losowe 2",
          "questionType": "SIMPLE_QUESTION",
          "answers":{
            "a": "X2",
            "b": "Y2",
            "c": "Z2",
            "d": "W2"
          },
          "next": "1",
          "condition":""
        },
        {
          "id": "10013",
          "question": "Losowe 3",
          "questionType": "SIMPLE_QUESTION",
          "answers":{
            "a": "X3",
            "b": "Y3",
            "c": "Z3",
            "d": "W3"
          },
          "next": "",
          "condition":""
        }
      ]
    },
    "1001":{
      "questions":[
        {
          "id": "10011",
          "question": "Nie Losowe 1",
          "questionType": "SIMPLE_QUESTION",
          "answers":{
            "a": "not X1",
            "b": "not Y1",
            "c": "not Z1",
            "d": "not W1"
          },
          "next": "",
          "condition":""
        },
        {
          "id": "10012",
          "question": "Nie Losowe 2",
          "questionType": "SIMPLE_QUESTION",
          "answers":{
            "a": "not X2",
            "b": "not Y2",
            "c": "not Z2",
            "d": "not W2"
          },
          "next": "1",
          "condition":""
        },
        {
          "id": "10013",
          "question": "Nie Losowe 3",
          "questionType": "SIMPLE_QUESTION",
          "answers":{
            "a": "not X3",
            "b": "not Y3",
            "c": "not Z3",
            "d": "not W3"
          },
          "next": "",
          "condition":""
        }
      ]
    }
  }
}
